European Drug Development – TidyTuesdays
…
Analysis of Drug Categories

Looking at the therapeutic areas for human drugs with authorized status, we can see the distribution of drug development across different medical fields. This helps us understand where pharmaceutical research and development efforts have been concentrated.

Code

drugs %>% 
  mutate(category=="human", authorisation_status=="authorized") %>% 
  count(therapeutic_area, sort=T)

# A tibble: 670 × 2
   therapeutic_area                           n
   <chr>                                  <int>
 1 <NA>                                     285
 2 Diabetes Mellitus, Type 2                 73
 3 HIV Infections                            71
 4 Hypertension                              47
 5 Diabetes Mellitus                         37
 6 Pulmonary Disease, Chronic Obstructive    30
 7 Hepatitis C, Chronic                      22
 8 Multiple Myeloma                          22
 9 Parkinson Disease                         20
10 Carcinoma, Non-Small-Cell Lung            19
# ℹ 660 more rows
…
orphan_drugs_years

# A tibble: 82 × 5
# Groups:   orphan_medicine, authorisation_status [4]
   orphan_medicine authorisation_status  year     n approved_orphan
   <lgl>           <lgl>                <dbl> <int> <fct>          
 1 FALSE           TRUE                  1995     4 Drug authorised
 2 FALSE           TRUE                  1996     7 Drug authorised
 3 FALSE           TRUE                  1997     5 Drug authorised
 4 FALSE           TRUE                  1998    15 Drug authorised
 5 FALSE           TRUE                  1999    13 Drug authorised
 6 FALSE           TRUE                  2000    17 Drug authorised
 7 FALSE           TRUE                  2001     7 Drug authorised
 8 FALSE           TRUE                  2002    13 Drug authorised
 9 FALSE           TRUE                  2003     8 Drug authorised
10 FALSE           TRUE                  2004    16 Drug authorised
# ℹ 72 more rows
…
