Bob Ross Paintings – TidyTuesdays
…
  legend.position = "none"
)

How many paintings per season?

There are 13 paintings per season every season for 31 season

bob_ross %>% 
  group_by(season) %>% 
  summarise(paintings = n()) %>% 
  arrange(desc(paintings))

# A tibble: 31 × 2
   season paintings
    <dbl>     <int>
 1      1        13
 2      2        13
 3      3        13
 4      4        13
 5      5        13
 6      6        13
 7      7        13
 8      8        13
 9      9        13
10     10        13
# ℹ 21 more rows
…
all_seasons_colors <- bob_ross %>% 
  pivot_longer(Black_Gesso:Alizarin_Crimson, names_to = "color") %>% 
  mutate(color = str_replace_all(color, "_", "")) %>% 
  filter(value) %>% 
  left_join(most_frequent_used_colours, by="color")

all_seasons_colors

# A tibble: 4,292 × 14
   painting_index img_src   painting_title season episode num_colors youtube_src
            <dbl> <chr>     <chr>           <dbl>   <dbl>      <dbl> <chr>      
 1            282 https://… A Walk in the…      1       1          8 https://ww…
 2            282 https://… A Walk in the…      1       1          8 https://ww…
 3            282 https://… A Walk in the…      1       1          8 https://ww…
 4            282 https://… A Walk in the…      1       1          8 https://ww…
 5            282 https://… A Walk in the…      1       1          8 https://ww…
 6            282 https://… A Walk in the…      1       1          8 https://ww…
 7            282 https://… A Walk in the…      1       1          8 https://ww…
 8            282 https://… A Walk in the…      1       1          8 https://ww…
 9            283 https://… Mt. McKinley        1       2          8 https://ww…
10            283 https://… Mt. McKinley        1       2          8 https://ww…
# ℹ 4,282 more rows
# ℹ 7 more variables: colors <chr>, color_hex.x <chr>, tags <chr>, color <chr>,
#   value <lgl>, count <int>, color_hex.y <chr>
…
colors_used_together <- co_occurence %>% 
  pivot_longer(Alizarin_Crimson:Yellow_Ochre, names_to = "Pair", values_to = "n") %>% 
  mutate(Color = str_replace_all(Color, "_", ""), Pair = str_replace_all(Pair, "_", ""))

colors_used_together %>% 
  arrange(-n)

# A tibble: 324 × 3
# Groups:   Color [18]
   Color           Pair                n
   <chr>           <chr>           <dbl>
 1 TitaniumWhite   TitaniumWhite     400
 2 AlizarinCrimson AlizarinCrimson   380
 3 AlizarinCrimson TitaniumWhite     378
 4 TitaniumWhite   AlizarinCrimson   378
 5 VanDykeBrown    VanDykeBrown      371
 6 TitaniumWhite   VanDykeBrown      369
 7 VanDykeBrown    TitaniumWhite     369
 8 AlizarinCrimson VanDykeBrown      354
 9 VanDykeBrown    AlizarinCrimson   354
10 CadmiumYellow   CadmiumYellow     346
# ℹ 314 more rows
…
